task4/F1_Lights.vcd
$version Generated by VerilatedVcd $end
$date Fri Nov  3 15:00:40 2023 $end
$timescale 1ps $end

 $scope module TOP $end
  $var wire  1 2 clk $end
  $var wire  8 7 data_out [7:0] $end
  $var wire  1 4 en $end
  $var wire  5 6 n [4:0] $end
  $var wire  1 3 rst $end
  $var wire  1 5 trigger $end
  $scope module F1_Lights $end
   $var wire  7 8 K [6:0] $end
   $var wire  1 2 clk $end
   $var wire  1 & cmd_delay $end
   $var wire  1 % cmd_seq $end
   $var wire  8 7 data_out [7:0] $end
   $var wire  1 4 en $end
   $var wire  1 ' f1_fsm_en $end
   $var wire  5 6 n [4:0] $end
   $var wire  1 3 rst $end
   $var wire  1 # tick $end
   $var wire  1 $ time_out $end
   $var wire  1 5 trigger $end
   $scope module ClkTick $end
    $var wire  5 6 N [4:0] $end
    $var wire 32 : WIDTH [31:0] $end
    $var wire  1 2 clk $end
    $var wire  5 ) count [4:0] $end
    $var wire  8 ( data_out [7:0] $end
    $var wire  1 % en $end
    $var wire  1 3 rst $end
    $var wire  1 # tick $end
    $scope module F1FSM $end
     $var wire  1 2 clk $end
     $var wire  1 + cmd_delay $end
     $var wire  1 * cmd_seq $end
     $var wire 32 , current_state [31:0] $end
     $var wire  8 ( data_out [7:0] $end
     $var wire  1 % en $end
     $var wire 32 - next_state [31:0] $end
     $var wire  1 3 rst $end
     $var wire  1 ; trigger $end
    $upscope $end
   $upscope $end
   $scope module Delay $end
    $var wire 32 < WIDTH [31:0] $end
    $var wire  1 2 clk $end
    $var wire  7 . count [6:0] $end
    $var wire 32 / current_state [31:0] $end
    $var wire  7 8 n [6:0] $end
    $var wire 32 0 next_state [31:0] $end
    $var wire  1 3 rst $end
    $var wire  1 $ time_out $end
    $var wire  1 & trigger $end
   $upscope $end
   $scope module F1FSM $end
    $var wire  1 2 clk $end
    $var wire  1 & cmd_delay $end
    $var wire  1 % cmd_seq $end
    $var wire 32 1 current_state [31:0] $end
    $var wire  8 7 data_out [7:0] $end
    $var wire  1 ' en $end
    $var wire 32 9 next_state [31:0] $end
    $var wire  1 3 rst $end
    $var wire  1 5 trigger $end
   $upscope $end
   $scope module LFSR $end
    $var wire  1 2 clk $end
    $var wire  7 8 data_out [6:0] $end
    $var wire  1 = en $end
    $var wire  1 3 rst $end
    $var wire  7 8 sreg [6:0] $end
   $upscope $end
  $upscope $end
 $upscope $end
$enddefinitions $end


#0
0#
0$
0%
0&
0'
b00000000 (
b00000 )
0*
0+
b00000000000000000000000000000000 ,
b00000000000000000000000000000000 -
b0000000 .
b00000000000000000000000000000000 /
b00000000000000000000000000000000 0
b00000000000000000000000000000000 1
12
03
04
05
b10011 6
b00000000 7
b0000000 8
b00000000000000000000000000000000 9
b00000000000000000000000000000101 :
0;
b00000000000000000000000000000111 <
1=
#1
1%
1*
02
#2
1#
1'
b10011 )
b1111111 .
12
13
#3
02
b0000001 8
#4
0#
0'
b0000000 .
12
#5
02
#6
12
03
#7
02
#8
b10010 )
12
b0000010 8
#9
02
#10
b10001 )
b0000001 .
12
b0000100 8
#11
02
#12
b10000 )
b0000000 .
12
b0001001 8
#13
02
#14
b01111 )
b0001000 .
12
b0010010 8
#15
02
#16
b01110 )
b0000111 .
12
b0100100 8
#17
02
#18
b01101 )
b0000110 .
12
b1001001 8
#19
02
#20
b01100 )
b0000101 .
12
b0010011 8
#21
02
#22
b01011 )
b0000100 .
12
b0100110 8
#23
02
#24
b01010 )
b0000011 .
12
b1001101 8
#25
02
#26
b01001 )
b0000010 .
12
b0011010 8
#27
02
#28
b01000 )
b0000001 .
12
b0110100 8
#29
02
#30
b00111 )
b0000000 .
12
b1101001 8
#31
02
#32
b00110 )
b1101000 .
12
b1010011 8
#33
02
#34
b00101 )
b1100111 .
12
b0100111 8
#35
02
#36
b00100 )
b1100110 .
12
b1001111 8
#37
02
#38
b00011 )
b1100101 .
12
b0011110 8
#39
02
#40
b00010 )
b1100100 .
12
b0111101 8
#41
02
#42
b00001 )
b1100011 .
12
b1111011 8
#43
02
#44
b00000 )
b1100010 .
12
b1110111 8
#45
02
#46
1#
1'
b10011 )
b1100001 .
12
b1101110 8
#47
02
#48
0#
0'
b10010 )
b1100000 .
12
b1011100 8
#49
02
#50
b10001 )
b1011111 .
12
b0111000 8
#51
02
#52
b10000 )
b1011110 .
12
b1110000 8
#53
02
#54
b01111 )
b1011101 .
12
b1100001 8
#55
02
#56
b01110 )
b1011100 .
12
b1000011 8
#57
02
#58
b01101 )
b1011011 .
12
b0000111 8
#59
02
#60
b01100 )
b1011010 .
12
b0001111 8
#61
02
#62
b01011 )
b1011001 .
12
b0011111 8
#63
02
#64
b01010 )
b1011000 .
12
b0111111 8
#65
02
#66
b01001 )
b1010111 .
12
b1111111 8
#67
02
#68
b01000 )
b1010110 .
12
b1111110 8
#69
02
#70
b00111 )
b1010101 .
12
b1111100 8
#71
02
#72
b00110 )
b1010100 .
12
b1111000 8
#73
02
#74
b00101 )
b1010011 .
12
b1110001 8
#75
02
#76
b00100 )
b1010010 .
12
b1100011 8
#77
02
#78
b00011 )
b1010001 .
12
b1000111 8
#79
02
#80
b00010 )
b1010000 .
12
b0001110 8
#81
02
#82
b00001 )
b1001111 .
12
b0011101 8
#83
02
#84
b00000 )
b1001110 .
12
b0111011 8
#85
02
#86
1#
1'
b10011 )
b1001101 .
12
b1110110 8
#87
02
#88
0#
0'
b10010 )
b1001100 .
12
b1101100 8
#89
02
#90
b10001 )
b1001011 .
12
b1011000 8
#91
02
#92
b10000 )
b1001010 .
12
b0110001 8
#93
02
#94
b01111 )
b1001001 .
12
b1100010 8
#95
02
#96
b01110 )
b1001000 .
12
b1000101 8
#97
02
#98
b01101 )
b1000111 .
12
b0001010 8
#99
02
#100
b01100 )
b1000110 .
12
b0010100 8
#101
02
#102
b01011 )
b1000101 .
12
b0101001 8
#103
02
#104
b01010 )
b1000100 .
12
b1010010 8
#105
02
#106
b01001 )
b1000011 .
12
b0100101 8
#107
02
#108
b01000 )
b1000010 .
12
b1001011 8
#109
02
#110
b00111 )
b1000001 .
12
b0010111 8
#111
02
#112
b00110 )
b1000000 .
12
b0101111 8
#113
02
#114
b00101 )
b0111111 .
12
b1011111 8
#115
02
#116
b00100 )
b0111110 .
12
b0111110 8
#117
02
#118
b00011 )
b0111101 .
12
15
b1111101 8
#119
02
b00000000000000000000000000000001 9
#120
b00010 )
b0111100 .
12
05
b1111010 8
#121
02
#122
b00001 )
b0111011 .
12
b1110101 8
#123
02
#124
b00000 )
b0111010 .
12
b1101010 8
#125
02
#126
1#
1'
b10011 )
b0111001 .
12
b1010101 8
#127
02
#128
0#
0'
b10010 )
b0111000 .
b00000000000000000000000000000001 1
12
b00000001 7
b0101010 8
#129
02
#130
b10001 )
b0110111 .
12
b1010100 8
#131
02
#132
b10000 )
b0110110 .
12
b0101000 8
#133
02
#134
b01111 )
b0110101 .
12
b1010000 8
#135
02
#136
b01110 )
b0110100 .
12
b0100001 8
#137
02
#138
b01101 )
b0110011 .
12
b1000010 8
#139
02
#140
b01100 )
b0110010 .
12
b0000101 8
#141
02
#142
b01011 )
b0110001 .
12
b0001011 8
#143
02
#144
b01010 )
b0110000 .
12
b0010110 8
#145
02
#146
b01001 )
b0101111 .
12
b0101101 8
#147
02
#148
b01000 )
b0101110 .
12
b1011011 8
#149
02
#150
b00111 )
b0101101 .
12
b0110111 8
#151
02
#152
b00110 )
b0101100 .
12
b1101111 8
#153
02
#154
b00101 )
b0101011 .
12
b1011110 8
#155
02
#156
b00100 )
b0101010 .
12
b0111100 8
#157
02
#158
b00011 )
b0101001 .
12
b1111001 8
#159
02
#160
b00010 )
b0101000 .
12
b1110011 8
#161
02
#162
b00001 )
b0100111 .
12
b1100111 8
#163
02
#164
b00000 )
b0100110 .
12
b1001110 8
#165
02
#166
1#
1'
b10011 )
b0100101 .
12
b0011100 8
b00000000000000000000000000000010 9
#167
02
#168
0#
0'
b10010 )
b0100100 .
b00000000000000000000000000000010 1
12
b00000011 7
b0111001 8
#169
02
#170
b10001 )
b0100011 .
12
b1110010 8
#171
02
#172
b10000 )
b0100010 .
12
b1100101 8
#173
02
#174
b01111 )
b0100001 .
12
b1001010 8
#175
02
#176
b01110 )
b0100000 .
12
b0010101 8
#177
02
#178
b01101 )
b0011111 .
12
b0101011 8
#179
02
#180
b01100 )
b0011110 .
12
b1010110 8
#181
02
#182
b01011 )
b0011101 .
12
b0101100 8
#183
02
#184
b01010 )
b0011100 .
12
b1011001 8
#185
02
#186
b01001 )
b0011011 .
12
b0110011 8
#187
02
#188
b01000 )
b0011010 .
12
b1100110 8
#189
02
#190
b00111 )
b0011001 .
12
b1001100 8
#191
02
#192
b00110 )
b0011000 .
12
b0011000 8
#193
02
#194
b00101 )
b0010111 .
12
b0110000 8
#195
02
#196
b00100 )
b0010110 .
12
b1100000 8
#197
02
#198
b00011 )
b0010101 .
12
b1000001 8
#199
02
#200
b00010 )
b0010100 .
12
b0000011 8
#201
02
#202
b00001 )
b0010011 .
12
b0000110 8
#203
02
#204
b00000 )
b0010010 .
12
b0001101 8
#205
02
#206
1#
1'
b10011 )
b0010001 .
12
b0011011 8
b00000000000000000000000000000011 9
#207
02
#208
0#
0'
b10010 )
b0010000 .
b00000000000000000000000000000011 1
12
b00000111 7
b0110110 8
#209
02
#210
b10001 )
b0001111 .
12
b1101101 8
#211
02
#212
b10000 )
b0001110 .
12
b1011010 8
#213
02
#214
b01111 )
b0001101 .
12
b0110101 8
#215
02
#216
b01110 )
b0001100 .
12
b1101011 8
#217
02
#218
b01101 )
b0001011 .
12
b1010111 8
#219
02
#220
b01100 )
b0001010 .
12
b0101110 8
#221
02
#222
b01011 )
b0001001 .
12
b1011101 8
#223
02
#224
b01010 )
b0001000 .
12
b0111010 8
#225
02
#226
b01001 )
b0000111 .
12
b1110100 8
#227
02
#228
b01000 )
b0000110 .
12
b1101000 8
#229
02
#230
b00111 )
b0000101 .
12
b1010001 8
#231
02
#232
b00110 )
b0000100 .
12
b0100011 8
#233
02
#234
b00101 )
b0000011 .
12
b1000110 8
#235
02
#236
b00100 )
b0000010 .
12
b0001100 8
#237
02
#238
b00011 )
b0000001 .
12
b0011001 8
#239
02
#240
b00010 )
b0000000 .
12
b0110010 8
#241
02
#242
b00001 )
b0110001 .
12
b1100100 8
#243
02
#244
b00000 )
b0110000 .
12
b1001000 8
#245
02
#246
1#
1'
b10011 )
b0101111 .
12
b0010001 8
b00000000000000000000000000000100 9
#247
02
#248
0#
0'
b10010 )
b0101110 .
b00000000000000000000000000000100 1
12
b00001111 7
b0100010 8
#249
02
#250
b10001 )
b0101101 .
12
b1000100 8
#251
02
#252
b10000 )
b0101100 .
12
b0001000 8
#253
02
#254
b01111 )
b0101011 .
12
b0010000 8
#255
02
#256
b01110 )
b0101010 .
12
b0100000 8
#257
02
#258
b01101 )
b0101001 .
12
b1000000 8
#259
02
#260
b01100 )
b0101000 .
12
b0000001 8
#261
02
#262
b01011 )
b0100111 .
12
b0000010 8
#263
02
#264
b01010 )
b0100110 .
12
b0000100 8
#265
02
#266
b01001 )
b0100101 .
12
b0001001 8
#267
02
#268
b01000 )
b0100100 .
12
b0010010 8
#269
02
#270
b00111 )
b0100011 .
12
b0100100 8
#271
02
#272
b00110 )
b0100010 .
12
b1001001 8
#273
02
#274
b00101 )
b0100001 .
12
b0010011 8
#275
02
#276
b00100 )
b0100000 .
12
b0100110 8
#277
02
#278
b00011 )
b0011111 .
12
b1001101 8
#279
02
#280
b00010 )
b0011110 .
12
b0011010 8
#281
02
#282
b00001 )
b0011101 .
12
b0110100 8
#283
02
#284
b00000 )
b0011100 .
12
b1101001 8
#285
02
#286
1#
1'
b10011 )
b0011011 .
12
b1010011 8
b00000000000000000000000000000101 9
#287
02
#288
0#
0'
b10010 )
b0011010 .
b00000000000000000000000000000101 1
12
b00011111 7
b0100111 8
#289
02
#290
b10001 )
b0011001 .
12
b1001111 8
#291
02
#292
b10000 )
b0011000 .
12
b0011110 8
#293
02
#294
b01111 )
b0010111 .
12
b0111101 8
#295
02
#296
b01110 )
b0010110 .
12
b1111011 8
#297
02
#298
b01101 )
b0010101 .
12
b1110111 8
#299
02
#300
b01100 )
b0010100 .
12
b1101110 8
#301
02
#302
b01011 )
b0010011 .
12
b1011100 8
#303
02
#304
b01010 )
b0010010 .
12
b0111000 8
#305
02
#306
b01001 )
b0010001 .
12
b1110000 8
#307
02
#308
b01000 )
b0010000 .
12
b1100001 8
#309
02
#310
b00111 )
b0001111 .
12
b1000011 8
#311
02
#312
b00110 )
b0001110 .
12
b0000111 8
#313
02
#314
b00101 )
b0001101 .
12
b0001111 8
#315
02
#316
b00100 )
b0001100 .
12
b0011111 8
#317
02
#318
b00011 )
b0001011 .
12
b0111111 8
#319
02
#320
b00010 )
b0001010 .
12
b1111111 8
#321
02
#322
b00001 )
b0001001 .
12
b1111110 8
#323
02
#324
b00000 )
b0001000 .
12
b1111100 8
#325
02
#326
1#
1'
b10011 )
b0000111 .
12
b1111000 8
b00000000000000000000000000000110 9
#327
02
#328
0#
0'
b10010 )
b0000110 .
b00000000000000000000000000000110 1
12
b00111111 7
b1110001 8
#329
02
#330
b10001 )
b0000101 .
12
b1100011 8
#331
02
#332
b10000 )
b0000100 .
12
b1000111 8
#333
02
#334
b01111 )
b0000011 .
12
b0001110 8
#335
02
#336
b01110 )
b0000010 .
12
b0011101 8
#337
02
#338
b01101 )
b0000001 .
12
b0111011 8
#339
02
#340
b01100 )
b0000000 .
12
b1110110 8
#341
02
#342
b01011 )
b1110101 .
12
b1101100 8
#343
02
#344
b01010 )
b1110100 .
12
b1011000 8
#345
02
#346
b01001 )
b1110011 .
12
b0110001 8
#347
02
#348
b01000 )
b1110010 .
12
b1100010 8
#349
02
#350
b00111 )
b1110001 .
12
b1000101 8
#351
02
#352
b00110 )
b1110000 .
12
b0001010 8
#353
02
#354
b00101 )
b1101111 .
12
b0010100 8
#355
02
#356
b00100 )
b1101110 .
12
b0101001 8
#357
02
#358
b00011 )
b1101101 .
12
b1010010 8
#359
02
#360
b00010 )
b1101100 .
12
b0100101 8
#361
02
#362
b00001 )
b1101011 .
12
b1001011 8
#363
02
#364
b00000 )
b1101010 .
12
b0010111 8
#365
02
#366
1#
1'
b10011 )
b1101001 .
12
b0101111 8
b00000000000000000000000000000111 9
#367
02
#368
0#
0'
b10010 )
b1101000 .
b00000000000000000000000000000111 1
12
b01111111 7
b1011111 8
#369
02
#370
b10001 )
b1100111 .
12
b0111110 8
#371
02
#372
b10000 )
b1100110 .
12
b1111101 8
#373
02
#374
b01111 )
b1100101 .
12
b1111010 8
#375
02
#376
b01110 )
b1100100 .
12
b1110101 8
#377
02
#378
b01101 )
b1100011 .
12
b1101010 8
#379
02
#380
b01100 )
b1100010 .
12
b1010101 8
#381
02
#382
b01011 )
b1100001 .
12
b0101010 8
#383
02
#384
b01010 )
b1100000 .
12
b1010100 8
#385
02
#386
b01001 )
b1011111 .
12
b0101000 8
#387
02
#388
b01000 )
b1011110 .
12
b1010000 8
#389
02
#390
b00111 )
b1011101 .
12
b0100001 8
#391
02
#392
b00110 )
b1011100 .
12
b1000010 8
#393
02
#394
b00101 )
b1011011 .
12
b0000101 8
#395
02
#396
b00100 )
b1011010 .
12
b0001011 8
#397
02
#398
b00011 )
b1011001 .
12
b0010110 8
#399
02
#400
b00010 )
b1011000 .
12
b0101101 8
#401
02
#402
b00001 )
b1010111 .
12
b1011011 8
#403
02
#404
b00000 )
b1010110 .
12
b0110111 8
#405
02
#406
1#
1'
b10011 )
b1010101 .
12
b1101111 8
b00000000000000000000000000001000 9
#407
02
#408
0#
0%
1&
0'
b10010 )
b1010100 .
b00000000000000000000000000000001 0
b00000000000000000000000000001000 1
12
b11111111 7
b1011110 8
#409
02
#410
b1011101 .
b00000000000000000000000000000001 /
12
b0111100 8
#411
02
#412
b0111011 .
12
b1111001 8
#413
02
#414
b1111000 .
12
b1110011 8
#415
02
#416
b1110010 .
12
b1100111 8
#417
02
#418
b1100110 .
12
b1001110 8
#419
02
#420
b1001101 .
12
b0011100 8
#421
02
#422
b0011011 .
12
b0111001 8
#423
02
#424
b0111000 .
12
b1110010 8
#425
02
#426
b1110001 .
12
b1100101 8
#427
02
#428
b1100100 .
12
b1001010 8
#429
02
#430
b1001001 .
12
b0010101 8
#431
02
#432
b0010100 .
12
b0101011 8
#433
02
#434
b0101010 .
12
b1010110 8
#435
02
#436
b1010101 .
12
b0101100 8
#437
02
#438
b0101011 .
12
b1011001 8
#439
02
#440
b1011000 .
12
b0110011 8
#441
02
#442
b0110010 .
12
b1100110 8
#443
02
#444
b1100101 .
12
b1001100 8
#445
02
#446
b1001011 .
12
b0011000 8
#447
02
#448
b0010111 .
12
b0110000 8
#449
02
#450
b0101111 .
12
b1100000 8
#451
02
#452
b1011111 .
12
b1000001 8
#453
02
#454
b1000000 .
12
b0000011 8
#455
02
#456
b0000010 .
12
b0000110 8
#457
02
#458
b0000101 .
12
b0001101 8
#459
02
#460
b0001100 .
12
b0011011 8
#461
02
#462
b0011010 .
12
b0110110 8
#463
02
#464
b0110101 .
12
b1101101 8
#465
02
#466
b1101100 .
12
b1011010 8
#467
02
#468
b1011001 .
12
b0110101 8
#469
02
#470
b0110100 .
12
b1101011 8
#471
02
#472
b1101010 .
12
b1010111 8
#473
02
#474
b1010110 .
12
b0101110 8
#475
02
#476
b0101101 .
12
b1011101 8
#477
02
#478
b1011100 .
12
b0111010 8
#479
02
#480
b0111001 .
12
b1110100 8
#481
02
#482
b1110011 .
12
b1101000 8
#483
02
#484
b1100111 .
12
b1010001 8
#485
02
#486
b1010000 .
12
b0100011 8
#487
02
#488
b0100010 .
12
b1000110 8
#489
02
#490
b1000101 .
12
b0001100 8
#491
02
#492
b0001011 .
12
b0011001 8
#493
02
#494
b0011000 .
12
b0110010 8
#495
02
#496
b0110001 .
12
b1100100 8
#497
02
#498
b1100011 .
12
b1001000 8
#499
02
#500
b1000111 .
12
b0010001 8
#501
02
#502
b0010000 .
12
b0100010 8
#503
02
#504
b0100001 .
12
b1000100 8
#505
02
#506
b1000011 .
12
b0001000 8
#507
02
#508
b0000111 .
12
b0010000 8
#509
02
#510
b0001111 .
12
b0100000 8
#511
02
#512
b0011111 .
12
b1000000 8
#513
02
#514
b0111111 .
12
b0000001 8
#515
02
#516
b0000000 .
b00000000000000000000000000000010 0
12
b0000010 8
#517
02
#518
1$
1'
b0000001 .
b00000000000000000000000000000010 /
b00000000000000000000000000000011 0
12
b0000100 8
b00000000000000000000000000000000 9
#519
02
#520
0$
1%
0&
0'
b0000011 .
b00000000000000000000000000000011 /
b00000000000000000000000000000000 0
b00000000000000000000000000000000 1
12
b00000000 7
b0001001 8
#521
02
#522
b10001 )
b0000010 .
b00000000000000000000000000000000 /
12
b0010010 8
#523
02
#524
b10000 )
b0000001 .
12
b0100100 8
#525
02
#526
b01111 )
b0000000 .
12
b1001001 8
#527
02
#528
b01110 )
b1001000 .
12
b0010011 8
#529
02
#530
b01101 )
b1000111 .
12
b0100110 8
#531
02
#532
b01100 )
b1000110 .
12
b1001101 8
#533
02
#534
b01011 )
b1000101 .
12
b0011010 8
#535
02
#536
b01010 )
b1000100 .
12
b0110100 8
#537
02
#538
b01001 )
b1000011 .
12
b1101001 8
#539
02
#540
b01000 )
b1000010 .
12
b1010011 8
#541
02
#542
b00111 )
b1000001 .
12
b0100111 8
#543
02
#544
b00110 )
b1000000 .
12
b1001111 8
#545
02
#546
b00101 )
b0111111 .
12
b0011110 8
#547
02
#548
b00100 )
b0111110 .
12
b0111101 8
#549
02
#550
b00011 )
b0111101 .
12
b1111011 8
#551
02
#552
b00010 )
b0111100 .
12
b1110111 8
#553
02
#554
b00001 )
b0111011 .
12
b1101110 8
#555
02
#556
b00000 )
b0111010 .
12
b1011100 8
#557
02
#558
1#
1'
b10011 )
b0111001 .
12
b0111000 8
#559
02
#560
0#
0'
b10010 )
b0111000 .
12
b1110000 8
#561
02
#562
b10001 )
b0110111 .
12
b1100001 8
#563
02
#564
b10000 )
b0110110 .
12
b1000011 8
#565
02
#566
b01111 )
b0110101 .
12
b0000111 8
#567
02
#568
b01110 )
b0110100 .
12
b0001111 8
#569
02
#570
b01101 )
b0110011 .
12
b0011111 8
#571
02
#572
b01100 )
b0110010 .
12
b0111111 8
#573
02
#574
b01011 )
b0110001 .
12
b1111111 8
#575
02
#576
b01010 )
b0110000 .
12
b1111110 8
#577
02
#578
b01001 )
b0101111 .
12
b1111100 8
#579
02
#580
b01000 )
b0101110 .
12
b1111000 8
#581
02
#582
b00111 )
b0101101 .
12
b1110001 8
#583
02
#584
b00110 )
b0101100 .
12
b1100011 8
#585
02
#586
b00101 )
b0101011 .
12
b1000111 8
#587
02
#588
b00100 )
b0101010 .
12
b0001110 8
#589
02
#590
b00011 )
b0101001 .
12
b0011101 8
#591
02
#592
b00010 )
b0101000 .
12
b0111011 8
#593
02
#594
b00001 )
b0100111 .
12
b1110110 8
#595
02
#596
b00000 )
b0100110 .
12
b1101100 8
#597
02
#598
1#
1'
b10011 )
b0100101 .
12
b1011000 8
#599
02
#600
0#
0'
b10010 )
b0100100 .
12
b0110001 8
#601
02
#602
b10001 )
b0100011 .
12
b1100010 8
#603
02
#604
b10000 )
b0100010 .
12
b1000101 8
#605
02
#606
b01111 )
b0100001 .
12
b0001010 8
#607
02
#608
b01110 )
b0100000 .
12
b0010100 8
#609
02
#610
b01101 )
b0011111 .
12
b0101001 8
#611
02
#612
b01100 )
b0011110 .
12
b1010010 8
#613
02
#614
b01011 )
b0011101 .
12
b0100101 8
#615
02
#616
b01010 )
b0011100 .
12
b1001011 8
#617
02
#618
b01001 )
b0011011 .
12
b0010111 8
#619
02
#620
b01000 )
b0011010 .
12
b0101111 8
#621
02
#622
b00111 )
b0011001 .
12
b1011111 8
#623
02
#624
b00110 )
b0011000 .
12
b0111110 8
#625
02
#626
b00101 )
b0010111 .
12
b1111101 8
#627
02
#628
b00100 )
b0010110 .
12
15
b1111010 8
#629
02
b00000000000000000000000000000001 9
#630
b00011 )
b0010101 .
12
05
b1110101 8
#631
02
#632
b00010 )
b0010100 .
12
b1101010 8
#633
02
#634
b00001 )
b0010011 .
12
b1010101 8
#635
02
#636
b00000 )
b0010010 .
12
b0101010 8
#637
02
#638
1#
1'
b10011 )
b0010001 .
12
b1010100 8
#639
02
#640
0#
0'
b10010 )
b0010000 .
b00000000000000000000000000000001 1
12
b00000001 7
b0101000 8
#641
02
#642
b10001 )
b0001111 .
12
b1010000 8
#643
02
#644
b10000 )
b0001110 .
12
b0100001 8
#645
02
#646
b01111 )
b0001101 .
12
b1000010 8
#647
02
#648
b01110 )
b0001100 .
12
b0000101 8
#649
02
#650
b01101 )
b0001011 .
12
b0001011 8
#651
02
#652
b01100 )
b0001010 .
12
b0010110 8
#653
02
#654
b01011 )
b0001001 .
12
b0101101 8
#655
02
#656
b01010 )
b0001000 .
12
b1011011 8
#657
02
#658
b01001 )
b0000111 .
12
b0110111 8
#659
02
#660
b01000 )
b0000110 .
12
b1101111 8
#661
02
#662
b00111 )
b0000101 .
12
b1011110 8
#663
02
#664
b00110 )
b0000100 .
12
b0111100 8
#665
02
#666
b00101 )
b0000011 .
12
b1111001 8
#667
02
#668
b00100 )
b0000010 .
12
b1110011 8
#669
02
#670
b00011 )
b0000001 .
12
b1100111 8
#671
02
#672
b00010 )
b0000000 .
12
b1001110 8
#673
02
#674
b00001 )
b1001101 .
12
b0011100 8
#675
02
#676
b00000 )
b1001100 .
12
b0111001 8
#677
02
#678
1#
1'
b10011 )
b1001011 .
12
b1110010 8
b00000000000000000000000000000010 9
#679
02
#680
0#
0'
b10010 )
b1001010 .
b00000000000000000000000000000010 1
12
b00000011 7
b1100101 8
#681
02
#682
b10001 )
b1001001 .
12
b1001010 8
#683
02
#684
b10000 )
b1001000 .
12
b0010101 8
#685
02
#686
b01111 )
b1000111 .
12
b0101011 8
#687
02
#688
b01110 )
b1000110 .
12
b1010110 8
#689
02
#690
b01101 )
b1000101 .
12
b0101100 8
#691
02
#692
b01100 )
b1000100 .
12
b1011001 8
#693
02
#694
b01011 )
b1000011 .
12
b0110011 8
#695
02
#696
b01010 )
b1000010 .
12
b1100110 8
#697
02
#698
b01001 )
b1000001 .
12
b1001100 8
#699
02
#700
b01000 )
b1000000 .
12
b0011000 8
#701
02
#702
b00111 )
b0111111 .
12
b0110000 8
#703
02
#704
b00110 )
b0111110 .
12
b1100000 8
#705
02
#706
b00101 )
b0111101 .
12
b1000001 8
#707
02
#708
b00100 )
b0111100 .
12
b0000011 8
#709
02
#710
b00011 )
b0111011 .
12
b0000110 8
#711
02
#712
b00010 )
b0111010 .
12
b0001101 8
#713
02
#714
b00001 )
b0111001 .
12
b0011011 8
#715
02
#716
b00000 )
b0111000 .
12
b0110110 8
#717
02
#718
1#
1'
b10011 )
b0110111 .
12
b1101101 8
b00000000000000000000000000000011 9
#719
02
#720
0#
0'
b10010 )
b0110110 .
b00000000000000000000000000000011 1
12
b00000111 7
b1011010 8
#721
02
#722
b10001 )
b0110101 .
12
b0110101 8
#723
02
#724
b10000 )
b0110100 .
12
b1101011 8
#725
02
#726
b01111 )
b0110011 .
12
b1010111 8
#727
02
#728
b01110 )
b0110010 .
12
b0101110 8
#729
02
#730
b01101 )
b0110001 .
12
b1011101 8
#731
02
#732
b01100 )
b0110000 .
12
b0111010 8
#733
02
#734
b01011 )
b0101111 .
12
b1110100 8
#735
02
#736
b01010 )
b0101110 .
12
b1101000 8
#737
02
#738
b01001 )
b0101101 .
12
b1010001 8
#739
02
#740
b01000 )
b0101100 .
12
b0100011 8
#741
02
#742
b00111 )
b0101011 .
12
b1000110 8
#743
02
#744
b00110 )
b0101010 .
12
b0001100 8
#745
02
#746
b00101 )
b0101001 .
12
b0011001 8
#747
02
#748
b00100 )
b0101000 .
12
b0110010 8
#749
02
#750
b00011 )
b0100111 .
12
b1100100 8
#751
02
#752
b00010 )
b0100110 .
12
b1001000 8
#753
02
#754
b00001 )
b0100101 .
12
b0010001 8
#755
02
#756
b00000 )
b0100100 .
12
b0100010 8
#757
02
#758
1#
1'
b10011 )
b0100011 .
12
b1000100 8
b00000000000000000000000000000100 9
#759
02
#760
0#
0'
b10010 )
b0100010 .
b00000000000000000000000000000100 1
12
b00001111 7
b0001000 8
#761
02
#762
b10001 )
b0100001 .
12
b0010000 8
#763
02
#764
b10000 )
b0100000 .
12
b0100000 8
#765
02
#766
b01111 )
b0011111 .
12
b1000000 8
#767
02
#768
b01110 )
b0011110 .
12
b0000001 8
#769
02
#770
b01101 )
b0011101 .
12
b0000010 8
#771
02
#772
b01100 )
b0011100 .
12
b0000100 8
#773
02
#774
b01011 )
b0011011 .
12
b0001001 8
#775
02
#776
b01010 )
b0011010 .
12
b0010010 8
#777
02
#778
b01001 )
b0011001 .
12
b0100100 8
#779
02
#780
b01000 )
b0011000 .
12
b1001001 8
#781
02
#782
b00111 )
b0010111 .
12
b0010011 8
#783
02
#784
b00110 )
b0010110 .
12
b0100110 8
#785
02
#786
b00101 )
b0010101 .
12
b1001101 8
#787
02
#788
b00100 )
b0010100 .
12
b0011010 8
#789
02
#790
b00011 )
b0010011 .
12
b0110100 8
#791
02
#792
b00010 )
b0010010 .
12
b1101001 8
#793
02
#794
b00001 )
b0010001 .
12
b1010011 8
#795
02
#796
b00000 )
b0010000 .
12
b0100111 8
#797
02
#798
1#
1'
b10011 )
b0001111 .
12
b1001111 8
b00000000000000000000000000000101 9
#799
02
#800
0#
0'
b10010 )
b0001110 .
b00000000000000000000000000000101 1
12
b00011111 7
b0011110 8
#801
02
#802
b10001 )
b0001101 .
12
b0111101 8
#803
02
#804
b10000 )
b0001100 .
12
b1111011 8
#805
02
#806
b01111 )
b0001011 .
12
b1110111 8
#807
02
#808
b01110 )
b0001010 .
12
b1101110 8
#809
02
#810
b01101 )
b0001001 .
12
b1011100 8
#811
02
#812
b01100 )
b0001000 .
12
b0111000 8
#813
02
#814
b01011 )
b0000111 .
12
b1110000 8
#815
02
#816
b01010 )
b0000110 .
12
b1100001 8
#817
02
#818
b01001 )
b0000101 .
12
b1000011 8
#819
02
#820
b01000 )
b0000100 .
12
b0000111 8
#821
02
#822
b00111 )
b0000011 .
12
b0001111 8
#823
02
#824
b00110 )
b0000010 .
12
b0011111 8
#825
02
#826
b00101 )
b0000001 .
12
b0111111 8
#827
02
#828
b00100 )
b0000000 .
12
b1111111 8
#829
02
#830
b00011 )
b1111110 .
12
b1111110 8
#831
02
#832
b00010 )
b1111101 .
12
b1111100 8
#833
02
#834
b00001 )
b1111100 .
12
b1111000 8
#835
02
#836
b00000 )
b1111011 .
12
b1110001 8
#837
02
#838
1#
1'
b10011 )
b1111010 .
12
b1100011 8
b00000000000000000000000000000110 9
#839
02
#840
0#
0'
b10010 )
b1111001 .
b00000000000000000000000000000110 1
12
b00111111 7
b1000111 8
#841
02
#842
b10001 )
b1111000 .
12
b0001110 8
#843
02
#844
b10000 )
b1110111 .
12
b0011101 8
#845
02
#846
b01111 )
b1110110 .
12
b0111011 8
#847
02
#848
b01110 )
b1110101 .
12
b1110110 8
#849
02
#850
b01101 )
b1110100 .
12
b1101100 8
#851
02
#852
b01100 )
b1110011 .
12
b1011000 8
#853
02
#854
b01011 )
b1110010 .
12
b0110001 8
#855
02
#856
b01010 )
b1110001 .
12
b1100010 8
#857
02
#858
b01001 )
b1110000 .
12
b1000101 8
#859
02
#860
b01000 )
b1101111 .
12
b0001010 8
#861
02
#862
b00111 )
b1101110 .
12
b0010100 8
#863
02
#864
b00110 )
b1101101 .
12
b0101001 8
#865
02
#866
b00101 )
b1101100 .
12
b1010010 8
#867
02
